1831;2015-08-01;13;135,2
1641;2014-09-09;15;624
1912;2016-04-06;9;72,63
1885;2014-10-18;3;43,8
1334;2014-04-18;16;300
1752;2015-10-16;2;20,68
1416;2015-09-17;5;36,8
1857;2014-05-02;4;61,04
1999;2014-04-30;4;64,08
1619;2014-03-23;18;88,38
1330;2015-06-19;7;137,06
1994;2015-12-29;10;217,9
1126;2015-08-13;14;473,06
1379;2015-02-11;6;184,2
1828;2015-04-10;2;97,66
1941;2014-04-14;3;28,62
1941;2015-12-15;2;83,86
1150;2015-11-26;17;513,91
1354;2015-05-17;12;550,8
1941;2014-09-24;2;53,72
1334;2015-06-27;16;388
1868;2016-02-01;12;293,4
1456;2014-07-12;19;39,33
1416;2014-07-29;17;103,36
1635;2014-11-16;15;521,25
1334;2015-09-24;7;316,19
1100;2016-04-12;17;473,62
1816;2016-04-05;16;579,52
1994;2014-11-12;6;82,26
1757;2015-07-07;1;45,36
1394;2014-05-21;3;35,16
1964;2014-02-13;11;184,36
1828;2014-09-11;8;176,16
1999;2016-01-15;2;22,16
1828;2014-05-12;13;28,08
1816;2014-05-19;11;509,19
1043;2015-01-30;3;97,68
1316;2014-11-14;6;114,54
1115;2014-05-14;1;33,74
1816;2015-02-02;8;82,32
1868;2015-06-30;17;79,9
1316;2015-09-16;1;47,68
1451;2014-09-03;17;494,19
1885;2015-03-14;3;142,32
1650;2015-12-22;11;104,72
1379;2014-07-17;19;64,41
1212;2014-06-16;8;370,64
1316;2015-11-27;3;63,99
1675;2014-12-01;2;63,3
1126;2014-12-27;5;129,3
1543;2014-01-07;7;45,01
1456;2014-10-04;12;123,24
1463;2014-12-12;3;90,78
1509;2015-09-06;4;140,32
1556;2014-10-18;5;180,3
1580;2016-01-19;12;245,52
1831;2014-06-19;9;28,62
1100;2016-02-12;5;206,25
1104;2015-06-27;8;158,08
1354;2015-01-09;4;38,48
1316;2016-01-28;4;72,16
1150;2014-04-06;15;393
1393;2014-08-13;8;186,48
1635;2016-05-07;18;362,34
1994;2015-12-17;6;53,76
1551;2016-03-23;9;18,63
1941;2014-10-06;19;387,79
1334;2015-04-17;4;108,96
1750;2014-03-08;3;43,86
1641;2015-12-10;8;253,6
1393;2014-02-09;16;222,4
1045;2015-01-26;6;247,92
1126;2014-03-06;13;512,98
1964;2015-05-26;18;384,84
1043;2015-06-06;17;712,81
1551;2014-04-28;3;116,76
1543;2016-01-29;15;624,6
1639;2015-03-19;8;52,8
1831;2014-10-27;11;457,82
1456;2015-01-03;17;715,02
1964;2015-06-09;2;61,3
1456;2014-01-07;9;118,26
1456;2014-10-02;5;77,3
1212;2014-12-17;18;55,26
1112;2014-09-21;19;308,94
1635;2015-01-26;2;29,32
1463;2015-05-03;11;180,07
1639;2015-12-13;7;234,85
1394;2015-05-04;15;585,3
1451;2016-03-16;1;33,87
1100;2015-10-24;11;190,74
1104;2015-04-16;16;523,04
1316;2015-02-28;8;247,92
1857;2016-01-30;13;397,8
1330;2016-04-04;4;173,44
1757;2014-11-18;2;58,28
1556;2015-11-01;3;90,3
1451;2014-12-09;5;224,15
1757;2014-11-26;17;760,41
1650;2016-04-06;3;14,4
1043;2015-05-11;15;121,65
1045;2015-06-20;19;713,83
1964;2014-09-07;13;585,78
1456;2014-01-06;5;173,1
1330;2015-10-12;4;140,96
1831;2015-01-26;1;14,99
1045;2014-12-20;15;689,25
1891;2014-03-24;1;32,23
1354;2015-03-17;15;464,1
1752;2014-12-14;16;194,88
1330;2015-11-05;12;336,6
1045;2014-03-14;6;191,28
1964;2014-02-26;11;109,78
1556;2015-03-10;9;342,27
1580;2015-03-25;16;686,72
1212;2014-07-04;19;764,37
1816;2015-09-24;3;112,14
1859;2015-09-03;9;82,26
1112;2016-03-07;14;15,4
1641;2014-03-21;9;397,44
1393;2015-12-06;4;151,32
1889;2015-10-20;15;692,25
1126;2014-03-18;19;283,86
1994;2015-03-25;19;96,14
1635;2016-01-21;10;351
1543;2015-10-15;14;484,68
1641;2016-04-19;12;581,4
1941;2016-02-24;15;417,45
1831;2014-05-12;19;356,44
1828;2016-01-19;1;25,93
1757;2015-10-12;4;157,88
1043;2015-06-04;13;235,04
1750;2016-04-04;1;13,5
1118;2014-06-06;5;157
1675;2015-10-21;10;477,6
1551;2014-07-02;13;35,88
1868;2015-03-03;15;373,35
1857;2016-03-03;1;9,8
1738;2014-04-28;7;355,11
1635;2014-02-18;5;239,05
1043;2014-03-17;1;12,13
1738;2014-08-18;14;80,78
1619;2014-04-02;16;796,96
1641;2015-11-07;5;87,85
1150;2014-02-19;3;46,26
1379;2015-05-11;8;370,56
1650;2016-04-22;3;102,84
1675;2014-03-01;7;333,41
1752;2014-10-01;18;62,46
1463;2016-02-06;19;426,74
1045;2014-04-06;2;65,18
1859;2014-03-13;11;257,95
