\relax 
\@writefile{lof}{\contentsline {figure}{\numberline {3}{\ignorespaces }}{1}}
\newlabel{fig:rys1}{{3}{1}}
\@writefile{toc}{\contentsline {section}{\numberline {1}Zadanie domowe - Twierdzenie cosinus\IeC {\'o}w}{1}}
\@writefile{toc}{\contentsline {subsection}{\numberline {1.1}Twierdzenie cosinus\IeC {\'o}w, wz\IeC {\'o}r cosinus\IeC {\'o}w, twierdzenie Carnota, uog\IeC {\'o}lnione twierdzenie Pitagorasa[1]}{1}}
\@writefile{lof}{\contentsline {figure}{\numberline {1}{\ignorespaces carnot}}{1}}
\newlabel{fig:carnot}{{1}{1}}
\newlabel{eq:rys1}{{1}{1}}
\bibcite{}{1}
\@writefile{lof}{\contentsline {figure}{\numberline {2}{\ignorespaces carnot}}{3}}
