\relax 
\providecommand\hyper@newdestlabel[2]{}
\providecommand\HyperFirstAtBeginDocument{\AtBeginDocument}
\HyperFirstAtBeginDocument{\ifx\hyper@anchor\@undefined
\global\let\oldcontentsline\contentsline
\gdef\contentsline#1#2#3#4{\oldcontentsline{#1}{#2}{#3}}
\global\let\oldnewlabel\newlabel
\gdef\newlabel#1#2{\newlabelxx{#1}#2}
\gdef\newlabelxx#1#2#3#4#5#6{\oldnewlabel{#1}{{#2}{#3}}}
\AtEndDocument{\ifx\hyper@anchor\@undefined
\let\contentsline\oldcontentsline
\let\newlabel\oldnewlabel
\fi}
\fi}
\global\let\hyper@last\relax 
\gdef\HyperFirstAtBeginDocument#1{#1}
\providecommand\HyField@AuxAddToFields[1]{}
\providecommand\HyField@AuxAddToCoFields[2]{}
\citation{zr2}
\@writefile{toc}{\contentsline {section}{\numberline {1}Lazare Carnot}{2}{section.1}}
\@writefile{lof}{\contentsline {figure}{\numberline {1}{\ignorespaces Lazare Carnot\relax }}{2}{figure.caption.1}}
\providecommand*\caption@xref[2]{\@setref\relax\@undefined{#1}}
\newlabel{carnot}{{1}{2}{Lazare Carnot\relax }{figure.caption.1}{}}
\@writefile{toc}{\contentsline {section}{\numberline {2}Twierdzenie cosinus\IeC {\'o}w}{3}{section.2}}
\@writefile{toc}{\contentsline {subsection}{\numberline {2.1}Twierdzenie}{3}{subsection.2.1}}
\newlabel{od:rys1}{{1}{3}{Carnota}{tw.1}{}}
\newlabel{eq:twcos}{{1}{3}{Carnota}{equation.2.1}{}}
\MT@newlabel{eq:pitagoras}
\newlabel{eq:pitagoras}{{2}{3}{Carnota}{equation.2.2}{}}
\@writefile{toc}{\contentsline {paragraph}{\relax \fontsize  {12}{14}\selectfont  {Dowody}}{3}{section*.2}}
\newlabel{od:rys2}{{1}{3}{\large {Dowody}}{section*.2}{}}
\MT@newlabel{eq:pitagoras}
\newlabel{d:lemat1}{{1}{3}{}{lem.1}{}}
\newlabel{od:rys3}{{1}{3}{}{lem.1}{}}
\@writefile{toc}{\contentsline {paragraph}{Dow\IeC {\'o}d twierdzenia}{4}{section*.3}}
\@writefile{toc}{\contentsline {subsection}{\numberline {2.2}Rysunki}{4}{subsection.2.2}}
\@writefile{lof}{\contentsline {figure}{\numberline {2}{\ignorespaces \relax }}{4}{table.caption.4}}
\newlabel{fig:rys1}{{2}{4}{\relax }{table.caption.4}{}}
\@writefile{lof}{\contentsline {figure}{\numberline {3}{\ignorespaces \relax }}{4}{table.caption.4}}
\newlabel{fig:rys2}{{3}{4}{\relax }{table.caption.4}{}}
\@writefile{lof}{\contentsline {figure}{\numberline {4}{\ignorespaces \relax }}{4}{table.caption.4}}
\newlabel{fig:rys3}{{4}{4}{\relax }{table.caption.4}{}}
\@writefile{toc}{\contentsline {subsection}{\numberline {2.3}Zastosowanie twierdzenia cosinus\IeC {\'o}w}{4}{subsection.2.3}}
\@writefile{toc}{\contentsline {paragraph}{Przyk\IeC {\l }ad zastosowania:}{4}{section*.5}}
\MT@newlabel{eq:twcos}
\bibcite{zr1}{1}
\bibcite{zr2}{2}
\bibcite{zr3}{3}
\bibcite{zr4}{4}
\MT@newlabel{eq:twcos}
